country,event,start,end,color
Alemania,Escuelas,2020-03-16,NA,#ffd8d8
Alemania,Restricciones,2020-03-16,NA,#ffffed
Alemania,Eventos,2020-03-12,NA,#e8f4f8
Alemania,Distanciamiento,2020-03-16,NA,#d2f8d2
Alemania,M. Económicas,2020-03-09,NA,#ade6d8
España,Escuelas,2020-03-13,NA,#ffd8d8
España,Restricciones,2020-03-16,NA,#ffffed
España,Eventos,2020-03-12,NA,#e8f4f8
España,Distanciamiento,2020-03-12,NA,#d2f8d2
España,M. Económicas,2020-03-17,NA,#ade6d8
Francia,Escuelas,2020-03-16,NA,#ffd8d8
Francia,Restricciones,2020-03-17,NA,#ffffed
Francia,Eventos,2020-03-12,NA,#e8f4f8
Francia,Distanciamiento,2020-03-16,NA,#d2f8d2
Francia,M. Económicas,2020-03-17,NA,#ade6d8
Italia,Escuelas,2020-03-04,NA,#ffd8d8
Italia,Restricciones,2020-03-09,NA,#ffffed
Italia,Eventos,2020-03-04,NA,#e8f4f8
Italia,Distanciamiento,2020-03-09,NA,#d2f8d2
Italia,M. Económicas,2020-03-16,NA,#ade6d8
EEUU,Restricciones,2020-03-13,NA,#ffffed
EEUU,Distanciamiento,2020-03-16,NA,#d2f8d2
EEUU,M. Económicas,2020-03-14,NA,#ade6d8
Suiza,Escuelas,2020-03-16,NA,#ffd8d8
Suiza,Restricciones,2020-03-16,NA,#ffffed
Suiza,Eventos,2020-03-16,NA,#e8f4f8
Suiza,Distanciamiento,2020-03-16,NA,#d2f8d2
