"","Country","Province.State","Lat","Long","Date","Deaths","Cases","Country_es","Distanciamiento","Escuelas","Eventos","M. Económicas","Restricciones"
"1","Italy",1,43,12,2020-01-22,0,0,"Italia",FALSE,FALSE,FALSE,FALSE,FALSE
"2","Italy",1,43,12,2020-01-23,0,0,"Italia",FALSE,FALSE,FALSE,FALSE,FALSE
"3","Italy",1,43,12,2020-01-24,0,0,"Italia",FALSE,FALSE,FALSE,FALSE,FALSE
"4","Italy",1,43,12,2020-01-25,0,0,"Italia",FALSE,FALSE,FALSE,FALSE,FALSE
"5","Italy",1,43,12,2020-01-26,0,0,"Italia",FALSE,FALSE,FALSE,FALSE,FALSE
"6","Italy",1,43,12,2020-01-27,0,0,"Italia",FALSE,FALSE,FALSE,FALSE,FALSE
"7","Italy",1,43,12,2020-01-28,0,0,"Italia",FALSE,FALSE,FALSE,FALSE,FALSE
"8","Italy",1,43,12,2020-01-29,0,0,"Italia",FALSE,FALSE,FALSE,FALSE,FALSE
"9","Italy",1,43,12,2020-01-30,0,0,"Italia",FALSE,FALSE,FALSE,FALSE,FALSE
"10","Italy",1,43,12,2020-01-31,0,2,"Italia",FALSE,FALSE,FALSE,FALSE,FALSE
"11","Italy",1,43,12,2020-02-01,0,2,"Italia",FALSE,FALSE,FALSE,FALSE,FALSE
"12","Italy",1,43,12,2020-02-02,0,2,"Italia",FALSE,FALSE,FALSE,FALSE,FALSE
"13","Italy",1,43,12,2020-02-03,0,2,"Italia",FALSE,FALSE,FALSE,FALSE,FALSE
"14","Italy",1,43,12,2020-02-04,0,2,"Italia",FALSE,FALSE,FALSE,FALSE,FALSE
"15","Italy",1,43,12,2020-02-05,0,2,"Italia",FALSE,FALSE,FALSE,FALSE,FALSE
"16","Italy",1,43,12,2020-02-06,0,2,"Italia",FALSE,FALSE,FALSE,FALSE,FALSE
"17","Italy",1,43,12,2020-02-07,0,3,"Italia",FALSE,FALSE,FALSE,FALSE,FALSE
"18","Italy",1,43,12,2020-02-08,0,3,"Italia",FALSE,FALSE,FALSE,FALSE,FALSE
"19","Italy",1,43,12,2020-02-09,0,3,"Italia",FALSE,FALSE,FALSE,FALSE,FALSE
"20","Italy",1,43,12,2020-02-10,0,3,"Italia",FALSE,FALSE,FALSE,FALSE,FALSE
"21","Italy",1,43,12,2020-02-11,0,3,"Italia",FALSE,FALSE,FALSE,FALSE,FALSE
"22","Italy",1,43,12,2020-02-12,0,3,"Italia",FALSE,FALSE,FALSE,FALSE,FALSE
"23","Italy",1,43,12,2020-02-13,0,3,"Italia",FALSE,FALSE,FALSE,FALSE,FALSE
"24","Italy",1,43,12,2020-02-14,0,3,"Italia",FALSE,FALSE,FALSE,FALSE,FALSE
"25","Italy",1,43,12,2020-02-15,0,3,"Italia",FALSE,FALSE,FALSE,FALSE,FALSE
"26","Italy",1,43,12,2020-02-16,0,3,"Italia",FALSE,FALSE,FALSE,FALSE,FALSE
"27","Italy",1,43,12,2020-02-17,0,3,"Italia",FALSE,FALSE,FALSE,FALSE,FALSE
"28","Italy",1,43,12,2020-02-18,0,3,"Italia",FALSE,FALSE,FALSE,FALSE,FALSE
"29","Italy",1,43,12,2020-02-19,0,3,"Italia",FALSE,FALSE,FALSE,FALSE,FALSE
"30","Italy",1,43,12,2020-02-20,0,3,"Italia",FALSE,FALSE,FALSE,FALSE,FALSE
"31","Italy",1,43,12,2020-02-21,1,20,"Italia",FALSE,FALSE,FALSE,FALSE,FALSE
"32","Italy",1,43,12,2020-02-22,2,62,"Italia",FALSE,FALSE,FALSE,FALSE,FALSE
"33","Italy",1,43,12,2020-02-23,3,155,"Italia",FALSE,FALSE,FALSE,FALSE,FALSE
"34","Italy",1,43,12,2020-02-24,7,229,"Italia",FALSE,FALSE,FALSE,FALSE,FALSE
"35","Italy",1,43,12,2020-02-25,10,322,"Italia",FALSE,FALSE,FALSE,FALSE,FALSE
"36","Italy",1,43,12,2020-02-26,12,453,"Italia",FALSE,FALSE,FALSE,FALSE,FALSE
"37","Italy",1,43,12,2020-02-27,17,655,"Italia",FALSE,FALSE,FALSE,FALSE,FALSE
"38","Italy",1,43,12,2020-02-28,21,888,"Italia",FALSE,FALSE,FALSE,FALSE,FALSE
"39","Italy",1,43,12,2020-02-29,29,1128,"Italia",FALSE,FALSE,FALSE,FALSE,FALSE
"40","Italy",1,43,12,2020-03-01,34,1694,"Italia",FALSE,FALSE,FALSE,FALSE,FALSE
"41","Italy",1,43,12,2020-03-02,52,2036,"Italia",FALSE,FALSE,FALSE,FALSE,FALSE
"42","Italy",1,43,12,2020-03-03,79,2502,"Italia",FALSE,FALSE,FALSE,FALSE,FALSE
"43","Italy",1,43,12,2020-03-04,107,3089,"Italia",FALSE,FALSE,FALSE,FALSE,FALSE
"44","Italy",1,43,12,2020-03-05,148,3858,"Italia",FALSE,TRUE,TRUE,FALSE,FALSE
"45","Italy",1,43,12,2020-03-06,197,4636,"Italia",FALSE,TRUE,TRUE,FALSE,FALSE
"46","Italy",1,43,12,2020-03-07,233,5883,"Italia",FALSE,TRUE,TRUE,FALSE,FALSE
"47","Italy",1,43,12,2020-03-08,366,7375,"Italia",FALSE,TRUE,TRUE,FALSE,FALSE
"48","Italy",1,43,12,2020-03-09,463,9172,"Italia",FALSE,TRUE,TRUE,FALSE,FALSE
"49","Italy",1,43,12,2020-03-10,631,10149,"Italia",TRUE,TRUE,TRUE,FALSE,TRUE
"50","Italy",1,43,12,2020-03-11,827,12462,"Italia",TRUE,TRUE,TRUE,FALSE,TRUE
"51","Italy",1,43,12,2020-03-12,827,12462,"Italia",TRUE,TRUE,TRUE,FALSE,TRUE
"52","Italy",1,43,12,2020-03-13,1266,17660,"Italia",TRUE,TRUE,TRUE,FALSE,TRUE
"53","Italy",1,43,12,2020-03-14,1441,21157,"Italia",TRUE,TRUE,TRUE,FALSE,TRUE
"54","Italy",1,43,12,2020-03-15,1809,24747,"Italia",TRUE,TRUE,TRUE,FALSE,TRUE
"55","Italy",1,43,12,2020-03-16,2158,27980,"Italia",TRUE,TRUE,TRUE,FALSE,TRUE
"56","Italy",1,43,12,2020-03-17,2503,31506,"Italia",TRUE,TRUE,TRUE,TRUE,TRUE
"57","Italy",1,43,12,2020-03-18,2978,35713,"Italia",TRUE,TRUE,TRUE,TRUE,TRUE
"58","Italy",1,43,12,2020-03-19,3405,41035,"Italia",TRUE,TRUE,TRUE,TRUE,TRUE
"59","Italy",1,43,12,2020-03-20,4032,47021,"Italia",TRUE,TRUE,TRUE,TRUE,TRUE
"60","Italy",1,43,12,2020-03-21,4825,53578,"Italia",TRUE,TRUE,TRUE,TRUE,TRUE
"61","Italy",1,43,12,2020-03-22,5476,59138,"Italia",TRUE,TRUE,TRUE,TRUE,TRUE
"62","Italy",1,43,12,2020-03-23,5476,59138,"Italia",TRUE,TRUE,TRUE,TRUE,TRUE
