"","Country","Province.State","Lat","Long","Date","Deaths","Cases","Country_es","Distanciamiento","Escuelas","Eventos","M. Económicas","Restricciones"
"1","US",9912,2172.4009,-4825.8527,2020-01-22,0,0,"EEUU",FALSE,FALSE,FALSE,FALSE,FALSE
"2","US",9912,2172.4009,-4825.8527,2020-01-23,0,0,"EEUU",FALSE,FALSE,FALSE,FALSE,FALSE
"3","US",9912,2172.4009,-4825.8527,2020-01-24,0,0,"EEUU",FALSE,FALSE,FALSE,FALSE,FALSE
"4","US",9912,2172.4009,-4825.8527,2020-01-25,0,0,"EEUU",FALSE,FALSE,FALSE,FALSE,FALSE
"5","US",9912,2172.4009,-4825.8527,2020-01-26,0,0,"EEUU",FALSE,FALSE,FALSE,FALSE,FALSE
"6","US",9912,2172.4009,-4825.8527,2020-01-27,0,0,"EEUU",FALSE,FALSE,FALSE,FALSE,FALSE
"7","US",9912,2172.4009,-4825.8527,2020-01-28,0,0,"EEUU",FALSE,FALSE,FALSE,FALSE,FALSE
"8","US",9912,2172.4009,-4825.8527,2020-01-29,0,0,"EEUU",FALSE,FALSE,FALSE,FALSE,FALSE
"9","US",9912,2172.4009,-4825.8527,2020-01-30,0,0,"EEUU",FALSE,FALSE,FALSE,FALSE,FALSE
"10","US",9912,2172.4009,-4825.8527,2020-01-31,0,0,"EEUU",FALSE,FALSE,FALSE,FALSE,FALSE
"11","US",9912,2172.4009,-4825.8527,2020-02-01,0,0,"EEUU",FALSE,FALSE,FALSE,FALSE,FALSE
"12","US",9912,2172.4009,-4825.8527,2020-02-02,0,0,"EEUU",FALSE,FALSE,FALSE,FALSE,FALSE
"13","US",9912,2172.4009,-4825.8527,2020-02-03,0,0,"EEUU",FALSE,FALSE,FALSE,FALSE,FALSE
"14","US",9912,2172.4009,-4825.8527,2020-02-04,0,0,"EEUU",FALSE,FALSE,FALSE,FALSE,FALSE
"15","US",9912,2172.4009,-4825.8527,2020-02-05,0,0,"EEUU",FALSE,FALSE,FALSE,FALSE,FALSE
"16","US",9912,2172.4009,-4825.8527,2020-02-06,0,0,"EEUU",FALSE,FALSE,FALSE,FALSE,FALSE
"17","US",9912,2172.4009,-4825.8527,2020-02-07,0,0,"EEUU",FALSE,FALSE,FALSE,FALSE,FALSE
"18","US",9912,2172.4009,-4825.8527,2020-02-08,0,0,"EEUU",FALSE,FALSE,FALSE,FALSE,FALSE
"19","US",9912,2172.4009,-4825.8527,2020-02-09,0,0,"EEUU",FALSE,FALSE,FALSE,FALSE,FALSE
"20","US",9912,2172.4009,-4825.8527,2020-02-10,0,0,"EEUU",FALSE,FALSE,FALSE,FALSE,FALSE
"21","US",9912,2172.4009,-4825.8527,2020-02-11,0,0,"EEUU",FALSE,FALSE,FALSE,FALSE,FALSE
"22","US",9912,2172.4009,-4825.8527,2020-02-12,0,0,"EEUU",FALSE,FALSE,FALSE,FALSE,FALSE
"23","US",9912,2172.4009,-4825.8527,2020-02-13,0,0,"EEUU",FALSE,FALSE,FALSE,FALSE,FALSE
"24","US",9912,2172.4009,-4825.8527,2020-02-14,0,0,"EEUU",FALSE,FALSE,FALSE,FALSE,FALSE
"25","US",9912,2172.4009,-4825.8527,2020-02-15,0,0,"EEUU",FALSE,FALSE,FALSE,FALSE,FALSE
"26","US",9912,2172.4009,-4825.8527,2020-02-16,0,0,"EEUU",FALSE,FALSE,FALSE,FALSE,FALSE
"27","US",9912,2172.4009,-4825.8527,2020-02-17,0,0,"EEUU",FALSE,FALSE,FALSE,FALSE,FALSE
"28","US",9912,2172.4009,-4825.8527,2020-02-18,0,0,"EEUU",FALSE,FALSE,FALSE,FALSE,FALSE
"29","US",9912,2172.4009,-4825.8527,2020-02-19,0,0,"EEUU",FALSE,FALSE,FALSE,FALSE,FALSE
"30","US",9912,2172.4009,-4825.8527,2020-02-20,0,0,"EEUU",FALSE,FALSE,FALSE,FALSE,FALSE
"31","US",9912,2172.4009,-4825.8527,2020-02-21,0,0,"EEUU",FALSE,FALSE,FALSE,FALSE,FALSE
"32","US",9912,2172.4009,-4825.8527,2020-02-22,0,0,"EEUU",FALSE,FALSE,FALSE,FALSE,FALSE
"33","US",9912,2172.4009,-4825.8527,2020-02-23,0,0,"EEUU",FALSE,FALSE,FALSE,FALSE,FALSE
"34","US",9912,2172.4009,-4825.8527,2020-02-24,0,36,"EEUU",FALSE,FALSE,FALSE,FALSE,FALSE
"35","US",9912,2172.4009,-4825.8527,2020-02-25,0,36,"EEUU",FALSE,FALSE,FALSE,FALSE,FALSE
"36","US",9912,2172.4009,-4825.8527,2020-02-26,0,42,"EEUU",FALSE,FALSE,FALSE,FALSE,FALSE
"37","US",9912,2172.4009,-4825.8527,2020-02-27,0,42,"EEUU",FALSE,FALSE,FALSE,FALSE,FALSE
"38","US",9912,2172.4009,-4825.8527,2020-02-28,0,44,"EEUU",FALSE,FALSE,FALSE,FALSE,FALSE
"39","US",9912,2172.4009,-4825.8527,2020-02-29,0,44,"EEUU",FALSE,FALSE,FALSE,FALSE,FALSE
"40","US",9912,2172.4009,-4825.8527,2020-03-01,0,44,"EEUU",FALSE,FALSE,FALSE,FALSE,FALSE
"41","US",9912,2172.4009,-4825.8527,2020-03-02,0,45,"EEUU",FALSE,FALSE,FALSE,FALSE,FALSE
"42","US",9912,2172.4009,-4825.8527,2020-03-03,0,45,"EEUU",FALSE,FALSE,FALSE,FALSE,FALSE
"43","US",9912,2172.4009,-4825.8527,2020-03-04,0,45,"EEUU",FALSE,FALSE,FALSE,FALSE,FALSE
"44","US",9912,2172.4009,-4825.8527,2020-03-05,0,45,"EEUU",FALSE,FALSE,FALSE,FALSE,FALSE
"45","US",9912,2172.4009,-4825.8527,2020-03-06,0,45,"EEUU",FALSE,FALSE,FALSE,FALSE,FALSE
"46","US",9912,2172.4009,-4825.8527,2020-03-07,0,66,"EEUU",FALSE,FALSE,FALSE,FALSE,FALSE
"47","US",9912,2172.4009,-4825.8527,2020-03-08,0,66,"EEUU",FALSE,FALSE,FALSE,FALSE,FALSE
"48","US",9912,2172.4009,-4825.8527,2020-03-09,0,66,"EEUU",FALSE,FALSE,FALSE,FALSE,FALSE
"49","US",9912,2172.4009,-4825.8527,2020-03-10,28,959,"EEUU",FALSE,FALSE,FALSE,FALSE,FALSE
"50","US",9912,2172.4009,-4825.8527,2020-03-11,36,1281,"EEUU",FALSE,FALSE,FALSE,FALSE,FALSE
"51","US",9912,2172.4009,-4825.8527,2020-03-12,40,1663,"EEUU",FALSE,FALSE,FALSE,FALSE,FALSE
"52","US",9912,2172.4009,-4825.8527,2020-03-13,47,2179,"EEUU",FALSE,FALSE,FALSE,FALSE,FALSE
"53","US",9912,2172.4009,-4825.8527,2020-03-14,54,2726,"EEUU",FALSE,FALSE,FALSE,FALSE,TRUE
"54","US",9912,2172.4009,-4825.8527,2020-03-15,63,3498,"EEUU",FALSE,FALSE,FALSE,TRUE,TRUE
"55","US",9912,2172.4009,-4825.8527,2020-03-16,85,4631,"EEUU",FALSE,FALSE,FALSE,TRUE,TRUE
"56","US",9912,2172.4009,-4825.8527,2020-03-17,108,6419,"EEUU",TRUE,FALSE,FALSE,TRUE,TRUE
"57","US",9912,2172.4009,-4825.8527,2020-03-18,118,7781,"EEUU",TRUE,FALSE,FALSE,TRUE,TRUE
"58","US",9912,2172.4009,-4825.8527,2020-03-19,200,13674,"EEUU",TRUE,FALSE,FALSE,TRUE,TRUE
"59","US",9912,2172.4009,-4825.8527,2020-03-20,244,19097,"EEUU",TRUE,FALSE,FALSE,TRUE,TRUE
"60","US",9912,2172.4009,-4825.8527,2020-03-21,307,25486,"EEUU",TRUE,FALSE,FALSE,TRUE,TRUE
"61","US",9912,2172.4009,-4825.8527,2020-03-22,417,33269,"EEUU",TRUE,FALSE,FALSE,TRUE,TRUE
"62","US",9912,2172.4009,-4825.8527,2020-03-23,417,33276,"EEUU",TRUE,FALSE,FALSE,TRUE,TRUE
