Date,Deaths,index_governmentresponse,index_containmenthealth,index_stringency,c1_schoolclosing,c2_workplaceclosing,c3_cancelpublicevents,c4_restrictionsongatherings,c5_closepublictransport,c6_stayathomerequirements,c7_domestictravel,c8_internationaltravel,h1_publicinfocampaign,h2_testingpolicy,h3_contacttracing,confirmedcases,country_region,retail_and_recreation_percent_change_from_baseline,grocery_and_pharmacy_percent_change_from_baseline,parks_percent_change_from_baseline,transit_stations_percent_change_from_baseline,workplaces_percent_change_from_baseline,residential_percent_change_from_baseline,apple_driving,apple_walking
2020-01-01,0,0.0,0.0,0.0,0,0,0,0,0,0,0,0,0,0,0,0,,,,,,,,,
2020-01-02,0,0.0,0.0,0.0,0,0,0,0,0,0,0,0,0,0,0,0,,,,,,,,,
2020-01-03,0,0.0,0.0,0.0,0,0,0,0,0,0,0,0,0,0,0,0,,,,,,,,,
2020-01-04,0,0.0,0.0,0.0,0,0,0,0,0,0,0,0,0,0,0,0,,,,,,,,,
2020-01-05,0,0.0,0.0,0.0,0,0,0,0,0,0,0,0,0,0,0,0,,,,,,,,,
2020-01-06,0,0.0,0.0,0.0,0,0,0,0,0,0,0,0,0,0,0,0,,,,,,,,,
2020-01-07,0,0.0,0.0,0.0,0,0,0,0,0,0,0,0,0,0,0,0,,,,,,,,,
2020-01-08,0,0.0,0.0,0.0,0,0,0,0,0,0,0,0,0,0,0,0,,,,,,,,,
2020-01-09,0,0.0,0.0,0.0,0,0,0,0,0,0,0,0,0,0,0,0,,,,,,,,,
2020-01-10,0,0.0,0.0,0.0,0,0,0,0,0,0,0,0,0,0,0,0,,,,,,,,,
2020-01-11,0,0.0,0.0,0.0,0,0,0,0,0,0,0,0,0,0,0,0,,,,,,,,,
2020-01-12,0,0.0,0.0,0.0,0,0,0,0,0,0,0,0,0,0,0,0,,,,,,,,,
2020-01-13,0,0.0,0.0,0.0,0,0,0,0,0,0,0,0,0,0,0,0,,,,,,,,100.0,100.0
2020-01-14,0,0.0,0.0,0.0,0,0,0,0,0,0,0,0,0,0,0,0,,,,,,,,98.53,101.26
2020-01-15,0,0.0,0.0,0.0,0,0,0,0,0,0,0,0,0,0,0,0,,,,,,,,101.94,104.37
2020-01-16,0,0.0,0.0,0.0,0,0,0,0,0,0,0,0,0,0,0,0,,,,,,,,108.13,109.61
2020-01-17,0,0.0,0.0,0.0,0,0,0,0,0,0,0,0,0,0,0,0,,,,,,,,122.17,128.68
2020-01-18,0,0.0,0.0,0.0,0,0,0,0,0,0,0,0,0,0,0,0,,,,,,,,113.73,124.37
2020-01-19,0,0.0,0.0,0.0,0,0,0,0,0,0,0,0,0,0,0,0,,,,,,,,110.31,113.47
2020-01-20,0,0.0,0.0,0.0,0,0,0,0,0,0,0,0,0,0,0,1,,,,,,,,108.45,108.11
2020-01-21,0,2.559999942779541,3.0299999713897705,0.0,0,0,0,0,0,0,0,0,0,1,0,1,,,,,,,,105.33,104.4
2020-01-22,0,2.559999942779541,3.0299999713897705,0.0,0,0,0,0,0,0,0,0,0,1,0,1,,,,,,,,112.78,100.02
2020-01-23,0,2.559999942779541,3.0299999713897705,0.0,0,0,0,0,0,0,0,0,0,1,0,1,,,,,,,,134.89,102.91
2020-01-24,0,2.559999942779541,3.0299999713897705,0.0,0,0,0,0,0,0,0,0,0,1,0,2,,,,,,,,132.5,103.55
2020-01-25,0,2.559999942779541,3.0299999713897705,0.0,0,0,0,0,0,0,0,0,0,1,0,2,,,,,,,,133.36,112.88
2020-01-26,0,2.559999942779541,3.0299999713897705,0.0,0,0,0,0,0,0,0,0,0,1,0,3,,,,,,,,119.25,105.85
2020-01-27,0,2.559999942779541,3.0299999713897705,0.0,0,0,0,0,0,0,0,0,0,1,0,4,,,,,,,,101.94,100.29
2020-01-28,0,2.559999942779541,3.0299999713897705,0.0,0,0,0,0,0,0,0,0,0,1,0,4,,,,,,,,97.54,103.57
2020-01-29,0,6.409999847412109,7.579999923706055,0.0,0,0,0,0,0,0,0,0,0,1,1,4,,,,,,,,95.77,99.09
2020-01-30,0,6.409999847412109,7.579999923706055,0.0,0,0,0,0,0,0,0,0,0,1,1,4,,,,,,,,104.55,109.83
2020-01-31,0,8.329999923706055,9.850000381469727,2.7799999713897705,0,0,1,0,0,0,0,0,0,1,1,7,,,,,,,,106.2,110.04
2020-02-01,0,16.030000686645508,18.940000534057617,13.890000343322754,0,0,1,0,0,0,0,0,2,1,1,12,,,,,,,,83.78,87.13
2020-02-02,0,16.030000686645508,18.940000534057617,13.890000343322754,0,0,1,0,0,0,0,0,2,1,1,15,,,,,,,,80.08,78.41
2020-02-03,0,19.8700008392334,23.479999542236328,19.440000534057617,2,0,1,0,0,0,0,0,2,1,1,15,,,,,,,,80.06,79.0
2020-02-04,0,25.639999389648438,30.299999237060547,27.780000686645508,2,0,1,0,0,0,0,3,2,1,1,16,,,,,,,,77.33,74.19
2020-02-05,0,25.639999389648438,30.299999237060547,27.780000686645508,2,0,1,0,0,0,0,3,2,1,1,18,,,,,,,,76.93,69.37
2020-02-06,0,28.209999084472656,33.33000183105469,31.479999542236328,3,0,1,0,0,0,0,3,2,1,1,23,,,,,,,,76.81,72.17
2020-02-07,0,33.33000183105469,39.38999938964844,31.479999542236328,3,0,1,0,0,0,0,3,2,3,1,24,,,,,,,,85.16,83.12
2020-02-08,0,33.33000183105469,39.38999938964844,31.479999542236328,3,0,1,0,0,0,0,3,2,3,1,24,,,,,,,,79.42,80.64
2020-02-09,0,33.33000183105469,39.38999938964844,31.479999542236328,3,0,1,0,0,0,0,3,2,3,1,25,,,,,,,,79.03,77.53
2020-02-10,0,33.33000183105469,39.38999938964844,31.479999542236328,3,0,1,0,0,0,0,3,2,3,1,27,,,,,,,,81.57,80.29
2020-02-11,0,37.18000030517578,43.939998626708984,31.479999542236328,3,0,1,0,0,0,0,3,2,3,2,28,,,,,,,,80.72,76.27
2020-02-12,0,37.18000030517578,43.939998626708984,31.479999542236328,3,0,1,0,0,0,0,3,2,3,2,28,,,,,,,,84.53,81.82
2020-02-13,0,37.18000030517578,43.939998626708984,31.479999542236328,3,0,1,0,0,0,0,3,2,3,2,28,,,,,,,,85.16,84.33
2020-02-14,0,37.18000030517578,43.939998626708984,31.479999542236328,3,0,1,0,0,0,0,3,2,3,2,28,,,,,,,,96.68,94.45
2020-02-15,0,37.18000030517578,43.939998626708984,31.479999542236328,3,0,1,0,0,0,0,3,2,3,2,28,,,,,,,,83.25,78.61
2020-02-16,0,37.18000030517578,43.939998626708984,31.479999542236328,3,0,1,0,0,0,0,3,2,3,2,29,,,,,,,,76.41,67.55
2020-02-17,0,37.18000030517578,43.939998626708984,31.479999542236328,3,0,1,0,0,0,0,3,2,3,2,30,,,,,,,,78.7,75.78
2020-02-18,0,37.18000030517578,43.939998626708984,31.479999542236328,3,0,1,0,0,0,0,3,2,3,2,31,,,,,,,,82.67,79.84
2020-02-19,0,37.18000030517578,43.939998626708984,31.479999542236328,3,0,1,0,0,0,0,3,2,3,2,46,,,,,,,,81.38,79.71
2020-02-20,0,37.18000030517578,43.939998626708984,31.479999542236328,3,0,1,0,0,0,0,3,2,3,2,80,,,,,,,,79.4,75.08
2020-02-21,1,46.790000915527344,55.29999923706055,45.369998931884766,3,0,2,2,0,0,0,3,2,3,2,155,,,,,,,,79.63,71.52
2020-02-22,2,46.790000915527344,55.29999923706055,45.369998931884766,3,0,2,2,0,0,0,3,2,3,2,345,,,,,,,,67.53,62.77
2020-02-23,5,50.0,59.09000015258789,50.0,3,0,2,2,0,1,1,3,2,3,2,601,,,,,,,,64.55,57.99
2020-02-24,7,53.849998474121094,63.63999938964844,55.560001373291016,3,1,2,2,0,1,1,3,2,3,2,762,,,,,,,,62.29,51.5
2020-02-25,8,53.849998474121094,63.63999938964844,55.560001373291016,3,1,2,2,0,1,1,3,2,3,2,892,,,,,,,,62.25,54.24
2020-02-26,11,53.849998474121094,63.63999938964844,55.560001373291016,3,1,2,2,0,1,1,3,2,3,2,1146,,,,,,,,61.46,50.56
2020-02-27,12,53.849998474121094,63.63999938964844,55.560001373291016,3,1,2,2,0,1,1,3,2,3,2,1595,,,,,,,,55.92,41.83
2020-02-28,13,53.849998474121094,63.63999938964844,55.560001373291016,3,1,2,2,0,1,1,3,2,3,2,2022,,,,,,,,55.41,40.67
2020-02-29,16,53.849998474121094,63.63999938964844,55.560001373291016,3,1,2,2,0,1,1,3,2,3,2,2931,,,,,,,,51.12,38.09
2020-03-01,17,53.849998474121094,63.63999938964844,55.560001373291016,3,1,2,2,0,1,1,3,2,3,2,3526,,,,,,,,52.72,39.13
2020-03-02,22,53.849998474121094,63.63999938964844,55.560001373291016,3,1,2,2,0,1,1,3,2,3,2,4212,,,,,,,,52.48,37.82
2020-03-03,28,53.849998474121094,63.63999938964844,55.560001373291016,3,1,2,2,0,1,1,3,2,3,2,4812,,,,,,,,53.41,37.45
2020-03-04,32,53.849998474121094,63.63999938964844,55.560001373291016,3,1,2,2,0,1,1,3,2,3,2,5328,,,,,,,,52.79,35.81
2020-03-05,35,53.849998474121094,63.63999938964844,55.560001373291016,3,1,2,2,0,1,1,3,2,3,2,5766,,,,,,,,53.55,39.03
2020-03-06,42,53.849998474121094,63.63999938964844,55.560001373291016,3,1,2,2,0,1,1,3,2,3,2,6284,,,,,,,,57.92,39.29
2020-03-07,44,53.849998474121094,63.63999938964844,55.560001373291016,3,1,2,2,0,1,1,3,2,3,2,6767,,,,,,,,55.26,40.01
2020-03-08,50,53.849998474121094,63.63999938964844,55.560001373291016,3,1,2,2,0,1,1,3,2,3,2,7134,,,,,,,,56.98,43.69
2020-03-09,51,53.849998474121094,63.63999938964844,55.560001373291016,3,1,2,2,0,1,1,3,2,3,2,7382,,,,,,,,53.45,35.61
2020-03-10,54,53.849998474121094,63.63999938964844,55.560001373291016,3,1,2,2,0,1,1,3,2,3,2,7513,,,,,,,,56.01,39.77
2020-03-11,60,53.849998474121094,63.63999938964844,55.560001373291016,3,1,2,2,0,1,1,3,2,3,2,7755,,,,,,,,54.97,39.24
2020-03-12,66,53.849998474121094,63.63999938964844,55.560001373291016,3,1,2,2,0,1,1,3,2,3,2,7869,,,,,,,,55.19,43.04
2020-03-13,67,53.849998474121094,63.63999938964844,55.560001373291016,3,1,2,2,0,1,1,3,2,3,2,7979,,,,,,,,60.69,43.48
2020-03-14,72,53.849998474121094,63.63999938964844,55.560001373291016,3,1,2,2,0,1,1,3,2,3,2,8086,,,,,,,,54.44,39.21
2020-03-15,75,53.849998474121094,63.63999938964844,55.560001373291016,3,1,2,2,0,1,1,3,2,3,2,8162,,,,,,,,53.37,37.78
2020-03-16,75,53.849998474121094,63.63999938964844,55.560001373291016,3,1,2,2,0,1,1,3,2,3,2,8236,,,,,,,,52.49,37.25
2020-03-17,81,57.689998626708984,63.63999938964844,55.560001373291016,3,1,2,2,0,1,1,3,2,3,2,8320,,,,,,,,54.39,39.14
2020-03-18,86,57.689998626708984,63.63999938964844,55.560001373291016,3,1,2,2,0,1,1,3,2,3,2,8413,,,,,,,,53.18,37.37
2020-03-19,91,57.689998626708984,63.63999938964844,55.560001373291016,3,1,2,2,0,1,1,3,2,3,2,8565,,,,,,,,54.92,39.5
2020-03-20,100,57.689998626708984,63.63999938964844,55.560001373291016,3,1,2,2,0,1,1,3,2,3,2,8652,,,,,,,,65.77,49.45
2020-03-21,103,67.30999755859375,75.0,69.44000244140625,3,1,2,2,0,2,2,3,2,3,2,8799,,,,,,,,59.72,45.47
2020-03-22,104,71.79000091552734,80.30000305175781,75.93000030517578,3,2,2,3,0,2,2,3,2,3,2,8897,,,,,,,,55.75,43.47
2020-03-23,113,71.79000091552734,80.30000305175781,75.93000030517578,3,2,2,3,0,2,2,3,2,3,2,8961,,,,,,,,56.17,41.14
2020-03-24,120,71.79000091552734,80.30000305175781,75.93000030517578,3,2,2,3,0,2,2,3,2,3,2,9037,,,,,,,,56.38,42.81
2020-03-25,126,71.79000091552734,80.30000305175781,75.93000030517578,3,2,2,3,0,2,2,3,2,3,2,9137,,,,,,,,55.21,40.62
2020-03-26,131,71.79000091552734,80.30000305175781,75.93000030517578,3,2,2,3,0,2,2,3,2,3,2,9241,,,,,,,,54.29,39.1
2020-03-27,139,71.79000091552734,80.30000305175781,75.93000030517578,3,2,2,3,0,2,2,3,2,3,2,9332,,,,,,,,62.41,45.8
2020-03-28,144,71.79000091552734,80.30000305175781,75.93000030517578,3,2,2,3,0,2,2,3,2,3,2,9478,,,,,,,,60.07,44.31
2020-03-29,152,71.79000091552734,80.30000305175781,75.93000030517578,3,2,2,3,0,2,2,3,2,3,2,9583,,,,,,,,56.55,42.05
2020-03-30,158,75.63999938964844,80.30000305175781,75.93000030517578,3,2,2,3,0,2,2,3,2,3,2,9661,,,,,,,,56.24,41.88
2020-03-31,163,75.63999938964844,80.30000305175781,75.93000030517578,3,2,2,3,0,2,2,3,2,3,2,9786,,,,,,,,58.4,43.68
2020-04-01,163,75.63999938964844,80.30000305175781,75.93000030517578,3,2,2,3,0,2,2,3,2,3,2,9786,,,,,,,,59.07,42.13
2020-04-02,169,75.63999938964844,80.30000305175781,75.93000030517578,3,2,2,3,0,2,2,3,2,3,2,9976,,,,,,,,59.06,44.39
2020-04-03,174,75.63999938964844,80.30000305175781,75.93000030517578,3,2,2,3,0,2,2,3,2,3,2,10062,,,,,,,,71.97,50.92
2020-04-04,177,77.55999755859375,82.58000183105469,78.69999694824219,3,2,2,4,0,2,2,3,2,3,2,10156,,,,,,,,65.09,43.89
2020-04-05,183,77.55999755859375,82.58000183105469,78.69999694824219,3,2,2,4,0,2,2,3,2,3,2,10237,,,,,,,,58.14,43.4
2020-04-06,186,80.12999725341797,85.61000061035156,82.41000366210938,3,3,2,4,0,2,2,3,2,3,2,10284,,,,,,,,60.28,40.23
2020-04-07,192,80.12999725341797,85.61000061035156,82.41000366210938,3,3,2,4,0,2,2,3,2,3,2,10331,,,,,,,,59.74,41.09
2020-04-08,200,80.12999725341797,85.61000061035156,82.41000366210938,3,3,2,4,0,2,2,3,2,3,2,10384,,,,,,,,59.07,41.29
2020-04-09,204,80.12999725341797,85.61000061035156,82.41000366210938,3,3,2,4,0,2,2,3,2,3,2,10423,,,,,,,,58.76,44.61
2020-04-10,208,80.12999725341797,85.61000061035156,82.41000366210938,3,3,2,4,0,2,2,3,2,3,2,10450,,,,,,,,69.49,51.64
2020-04-11,208,80.12999725341797,85.61000061035156,82.41000366210938,3,3,2,4,0,2,2,3,2,3,2,10450,,,,,,,,60.85,42.6
2020-04-12,214,80.12999725341797,85.61000061035156,82.41000366210938,3,3,2,4,0,2,2,3,2,3,2,10512,,,,,,,,57.41,41.57
2020-04-13,217,80.12999725341797,85.61000061035156,82.41000366210938,3,3,2,4,0,2,2,3,2,3,2,10537,,,,,,,,59.57,42.92
2020-04-14,222,80.12999725341797,85.61000061035156,82.41000366210938,3,3,2,4,0,2,2,3,2,3,2,10564,,,,,,,,68.22,54.34
2020-04-15,225,80.12999725341797,85.61000061035156,82.41000366210938,3,3,2,4,0,2,2,3,2,3,2,10591,,,,,,,,58.92,43.37
2020-04-16,229,80.12999725341797,85.61000061035156,82.41000366210938,3,3,2,4,0,2,2,3,2,3,2,10613,,,,,,,,58.76,39.07
2020-04-17,230,80.12999725341797,85.61000061035156,82.41000366210938,3,3,2,4,0,2,2,3,2,3,2,10635,,,,,,,,68.86,50.73
2020-04-18,232,73.72000122070312,78.02999877929688,73.1500015258789,3,3,2,4,0,1,1,3,2,3,2,10653,,,,,,,,64.38,46.58
2020-04-19,234,73.72000122070312,78.02999877929688,73.1500015258789,3,3,2,4,0,1,1,3,2,3,2,10661,,,,,,,,55.0,35.38
2020-04-20,236,53.209999084472656,53.790000915527344,43.52000045776367,3,2,1,0,0,0,0,3,2,3,2,10674,,,,,,,,59.43,40.37
2020-04-21,237,53.209999084472656,53.790000915527344,43.52000045776367,3,2,1,0,0,0,0,3,2,3,2,10683,,,,,,,,57.6,37.92
2020-04-22,238,53.209999084472656,53.790000915527344,43.52000045776367,3,2,1,0,0,0,0,3,2,3,2,10694,,,,,,,,60.3,40.8
2020-04-23,240,53.209999084472656,53.790000915527344,43.52000045776367,3,2,1,0,0,0,0,3,2,3,2,10702,,,,,,,,63.5,43.15
2020-04-24,240,53.209999084472656,53.790000915527344,43.52000045776367,3,2,1,0,0,0,0,3,2,3,2,10708,,,,,,,,71.99,55.51
2020-04-25,240,53.209999084472656,53.790000915527344,43.52000045776367,3,2,1,0,0,0,0,3,2,3,2,10718,,,,,,,,72.07,56.25
2020-04-26,242,53.209999084472656,53.790000915527344,43.52000045776367,3,2,1,0,0,0,0,3,2,3,2,10728,,,,,,,,63.2,44.0
2020-04-27,243,53.209999084472656,53.790000915527344,43.52000045776367,3,2,1,0,0,0,0,3,2,3,2,10738,,,,,,,,63.63,43.03
2020-04-28,244,53.209999084472656,53.790000915527344,43.52000045776367,3,2,1,0,0,0,0,3,2,3,2,10752,,,,,,,,67.8,46.21
2020-04-29,246,53.209999084472656,53.790000915527344,43.52000045776367,3,2,1,0,0,0,0,3,2,3,2,10761,,,,,,,,93.02,58.19
2020-04-30,247,53.209999084472656,53.790000915527344,43.52000045776367,3,2,1,0,0,0,0,3,2,3,2,10765,,,,,,,,89.85,61.06
2020-05-01,248,53.209999084472656,53.790000915527344,43.52000045776367,3,2,1,0,0,0,0,3,2,3,2,10774,,,,,,,,89.36,62.77
2020-05-02,250,53.209999084472656,53.790000915527344,43.52000045776367,3,2,1,0,0,0,0,3,2,3,2,10780,,,,,,,,81.04,55.76
2020-05-03,250,53.209999084472656,53.790000915527344,43.52000045776367,3,2,1,0,0,0,0,3,2,3,2,10793,,,,,,,,81.83,52.27
2020-05-04,252,53.209999084472656,53.790000915527344,43.52000045776367,3,2,1,0,0,0,0,3,2,3,2,10801,,,,,,,,80.48,54.8
2020-05-05,254,53.209999084472656,53.790000915527344,43.52000045776367,3,2,1,0,0,0,0,3,2,3,2,10804,,,,,,,,69.54,51.74
2020-05-06,255,53.209999084472656,53.790000915527344,43.52000045776367,3,2,1,0,0,0,0,3,2,3,2,10806,,,,,,,,72.99,53.19
2020-05-07,256,53.209999084472656,53.790000915527344,43.52000045776367,3,2,1,0,0,0,0,3,2,3,2,10810,,,,,,,,74.56,54.69
2020-05-08,256,53.209999084472656,53.790000915527344,43.52000045776367,3,2,1,0,0,0,0,3,2,3,2,10822,,,,,,,,80.8,47.55
2020-05-09,256,53.209999084472656,53.790000915527344,43.52000045776367,3,2,1,0,0,0,0,3,2,3,2,10840,,,,,,,,72.02,51.06
2020-05-10,256,53.209999084472656,53.790000915527344,43.52000045776367,3,2,1,0,0,0,0,3,2,3,2,10874,,,,,,,,69.08,48.4
2020-05-11,256,53.209999084472656,53.790000915527344,43.52000045776367,3,2,1,0,0,0,0,3,2,3,2,10909,,,,,,,,,
2020-05-12,258,53.209999084472656,53.790000915527344,43.52000045776367,3,2,1,0,0,0,0,3,2,3,2,10936,,,,,,,,,
2020-05-13,259,53.209999084472656,53.790000915527344,43.52000045776367,3,2,1,0,0,0,0,3,2,3,2,10962,,,,,,,,71.25,47.93
2020-05-14,260,53.209999084472656,53.790000915527344,43.52000045776367,3,2,1,0,0,0,0,3,2,3,2,10991,,,,,,,,69.4,44.27
2020-05-15,260,53.209999084472656,53.790000915527344,43.52000045776367,3,2,1,0,0,0,0,3,2,3,2,11018,,,,,,,,79.62,51.78
2020-05-16,262,53.209999084472656,53.790000915527344,43.52000045776367,3,2,1,0,0,0,0,3,2,3,2,11037,,,,,,,,81.04,54.35
2020-05-17,262,53.209999084472656,53.790000915527344,43.52000045776367,3,2,1,0,0,0,0,3,2,3,2,11050,,,,,,,,74.8,44.71
2020-05-18,263,53.209999084472656,53.790000915527344,43.52000045776367,3,2,1,0,0,0,0,3,2,3,2,11065,,,,,,,,65.54,38.55
2020-05-19,263,53.209999084472656,53.790000915527344,43.52000045776367,3,2,1,0,0,0,0,3,2,3,2,11078,,,,,,,,72.66,45.93
2020-05-20,263,50.63999938964844,50.7599983215332,39.810001373291016,2,2,1,0,0,0,0,3,2,3,2,11110,,,,,,,,75.26,48.25
2020-05-21,264,50.63999938964844,50.7599983215332,39.810001373291016,2,2,1,0,0,0,0,3,2,3,2,11122,,,,,,,,77.62,50.14
2020-05-22,264,50.63999938964844,50.7599983215332,39.810001373291016,2,2,1,0,0,0,0,3,2,3,2,11142,,,,,,,,93.66,58.54
2020-05-23,266,50.63999938964844,50.7599983215332,39.810001373291016,2,2,1,0,0,0,0,3,2,3,2,11165,,,,,,,,84.92,56.58
2020-05-24,266,50.63999938964844,50.7599983215332,39.810001373291016,2,2,1,0,0,0,0,3,2,3,2,11190,,,,,,,,76.81,48.44
2020-05-25,267,50.63999938964844,50.7599983215332,39.810001373291016,2,2,1,0,0,0,0,3,2,3,2,11206,,,,,,,,75.39,45.24
2020-05-26,269,50.63999938964844,50.7599983215332,39.810001373291016,2,2,1,0,0,0,0,3,2,3,2,11225,,,,,,,,73.63,45.92
2020-05-27,269,50.63999938964844,50.7599983215332,39.810001373291016,2,2,1,0,0,0,0,3,2,3,2,11265,,,,,,,,75.71,46.9
2020-05-28,269,50.63999938964844,50.7599983215332,39.810001373291016,2,2,1,0,0,0,0,3,2,3,2,11344,,,,,,,,79.73,47.4
2020-05-29,269,62.5,64.7699966430664,56.939998626708984,3,2,2,4,0,1,1,3,2,3,2,11402,,,,,,,,94.9,58.92
2020-05-30,269,62.5,64.7699966430664,56.939998626708984,3,2,2,4,0,1,1,3,2,3,2,11441,,,,,,,,86.58,54.34
2020-05-31,270,62.5,64.7699966430664,56.939998626708984,3,2,2,4,0,1,1,3,2,3,2,11468,,,,,,,,75.69,47.2
2020-06-01,271,62.5,64.7699966430664,56.939998626708984,3,2,2,4,0,1,1,3,2,3,2,11503,,,,,,,,70.43,45.2
2020-06-02,272,62.5,64.7699966430664,56.939998626708984,3,2,2,4,0,1,1,3,2,3,2,11541,,,,,,,,69.39,45.87
2020-06-03,273,62.5,64.7699966430664,56.939998626708984,3,2,2,4,0,1,1,3,2,3,2,11590,,,,,,,,68.16,46.97
2020-06-04,273,62.5,64.7699966430664,56.939998626708984,3,2,2,4,0,1,1,3,2,3,2,11629,,,,,,,,70.49,47.6
2020-06-05,273,62.5,64.7699966430664,56.939998626708984,3,2,2,4,0,1,1,3,2,3,2,11668,,,,,,,,84.35,58.95
2020-06-06,273,62.5,64.7699966430664,56.939998626708984,3,2,2,4,0,1,1,3,2,3,2,11719,,,,,,,,79.89,58.81
2020-06-07,273,62.5,64.7699966430664,56.939998626708984,3,2,2,4,0,1,1,3,2,3,2,11776,,,,,,,,72.76,46.56
2020-06-08,273,62.5,64.7699966430664,56.939998626708984,3,2,2,4,0,1,1,3,2,3,2,11814,,,,,,,,69.46,43.97
2020-06-09,274,62.5,64.7699966430664,56.939998626708984,3,2,2,4,0,1,1,3,2,3,2,11852,,,,,,,,68.1,42.06
2020-06-10,276,62.5,64.7699966430664,56.939998626708984,3,2,2,4,0,1,1,3,2,3,2,11902,,,,,,,,66.9,40.46
2020-06-11,276,62.5,64.7699966430664,56.939998626708984,3,2,2,4,0,1,1,3,2,3,2,11947,,,,,,,,72.91,45.92
2020-06-12,277,62.5,64.7699966430664,56.939998626708984,3,2,2,4,0,1,1,3,2,3,2,12003,,,,,,,,83.13,56.37
2020-06-13,277,62.5,64.7699966430664,56.939998626708984,3,2,2,4,0,1,1,3,2,3,2,12051,,,,,,,,74.89,53.48
2020-06-14,277,62.5,64.7699966430664,56.939998626708984,3,2,2,4,0,1,1,3,2,3,2,12084,,,,,,,,71.23,47.29
2020-06-15,277,62.5,64.7699966430664,56.939998626708984,3,2,2,4,0,1,1,3,2,3,2,12121,,,,,,,,71.24,45.2
2020-06-16,278,62.5,64.7699966430664,56.939998626708984,3,2,2,4,0,1,1,3,2,3,2,12155,,,,,,,,68.23,45.96
2020-06-17,279,62.5,64.7699966430664,56.939998626708984,3,2,2,4,0,1,1,3,2,3,2,12198,,,,,,,,67.21,42.2
2020-06-18,280,62.5,64.7699966430664,56.939998626708984,3,2,2,4,0,1,1,3,2,3,2,12257,,,,,,,,70.9,46.38
2020-06-19,280,62.5,64.7699966430664,56.939998626708984,3,2,2,4,0,1,1,3,2,3,2,12306,,,,,,,,86.39,58.55
2020-06-20,280,62.5,64.7699966430664,56.939998626708984,3,2,2,4,0,1,1,3,2,3,2,12373,,,,,,,,81.72,55.32
2020-06-21,280,62.5,64.7699966430664,56.939998626708984,3,2,2,4,0,1,1,3,2,3,2,12421,,,,,,,,71.69,44.1
2020-06-22,280,62.5,64.7699966430664,56.939998626708984,3,2,2,4,0,1,1,3,2,3,2,12438,,,,,,,,73.34,45.52
2020-06-23,281,62.5,64.7699966430664,56.939998626708984,3,2,2,4,0,1,1,3,2,3,2,12484,,,,,,,,72.33,43.15
2020-06-24,281,62.5,64.7699966430664,56.939998626708984,3,2,2,4,0,1,1,3,2,3,2,12535,,,,,,,,67.14,40.52
2020-06-25,282,62.5,64.7699966430664,56.939998626708984,3,2,2,4,0,1,1,3,2,3,2,12563,,,,,,,,72.24,46.31
2020-06-26,282,62.5,64.7699966430664,56.939998626708984,3,2,2,4,0,1,1,3,2,3,2,12602,,,,,,,,88.89,61.33
2020-06-27,282,62.5,64.7699966430664,56.939998626708984,3,2,2,4,0,1,1,3,2,3,2,12653,,,,,,,,84.83,58.45
2020-06-28,282,62.5,64.7699966430664,56.939998626708984,3,2,2,4,0,1,1,3,2,3,2,12715,,,,,,,,73.78,47.22
2020-06-29,282,62.5,64.7699966430664,56.939998626708984,3,2,2,4,0,1,1,3,2,3,2,12757,,,,,,,,66.83,41.31
2020-06-30,282,62.5,64.7699966430664,56.939998626708984,3,2,2,4,0,1,1,3,2,3,2,12800,,,,,,,,69.58,46.3
2020-07-01,282,62.5,64.7699966430664,56.939998626708984,3,2,2,4,0,1,1,3,2,3,2,12850,,,,,,,,72.06,47.39
2020-07-02,282,62.5,64.7699966430664,56.939998626708984,3,2,2,4,0,1,1,3,2,3,2,12904,,,,,,,,75.25,52.06
2020-07-03,282,62.5,64.7699966430664,56.939998626708984,3,2,2,4,0,1,1,3,2,3,2,12967,,,,,,,,87.32,64.1
2020-07-04,283,60.58000183105469,62.5,54.16999816894531,3,2,2,4,0,1,1,2,2,3,2,13030,,,,,,,,86.45,60.16
2020-07-05,283,60.58000183105469,62.5,54.16999816894531,3,2,2,4,0,1,1,2,2,3,2,13091,,,,,,,,75.18,49.63
2020-07-06,283,60.58000183105469,62.5,54.16999816894531,3,2,2,4,0,1,1,2,2,3,2,13091,,,,,,,,70.39,46.9
2020-07-07,285,60.58000183105469,62.5,54.16999816894531,3,2,2,4,0,1,1,2,2,3,2,13181,,,,,,,,71.29,47.85
2020-07-08,285,60.58000183105469,62.5,54.16999816894531,3,2,2,4,0,1,1,2,2,3,2,13244,,,,,,,,72.19,47.82
2020-07-09,287,60.58000183105469,62.5,54.16999816894531,3,2,2,4,0,1,1,2,2,3,2,13293,,,,,,,,71.53,44.9
2020-07-10,288,60.58000183105469,62.5,54.16999816894531,3,2,2,4,0,1,1,2,2,3,2,13338,,,,,,,,96.12,71.88
2020-07-11,288,56.72999954223633,57.95000076293945,48.61000061035156,3,2,1,4,0,1,1,2,2,3,2,13373,,,,,,,,80.68,57.57
2020-07-12,289,56.72999954223633,57.95000076293945,48.61000061035156,3,2,1,4,0,1,1,2,2,3,2,13417,,,,,,,,69.6,39.24
2020-07-13,289,56.72999954223633,57.95000076293945,48.61000061035156,3,2,1,4,0,1,1,2,2,3,2,13479,,,,,,,,67.99,41.92
2020-07-14,289,56.72999954223633,57.95000076293945,48.61000061035156,3,2,1,4,0,1,1,2,2,3,2,13512,,,,,,,,70.82,47.35
2020-07-15,289,56.72999954223633,57.95000076293945,48.61000061035156,3,2,1,4,0,1,1,2,2,3,2,13551,,,,,,,,74.22,48.94
2020-07-16,291,56.72999954223633,57.95000076293945,48.61000061035156,3,2,1,4,0,1,1,2,2,3,2,13612,,,,,,,,74.28,49.05
2020-07-17,293,56.72999954223633,57.95000076293945,48.61000061035156,3,2,1,4,0,1,1,2,2,3,2,13672,,,,,,,,89.76,61.46
2020-07-18,294,56.72999954223633,57.95000076293945,48.61000061035156,3,2,1,4,0,1,1,2,2,3,2,13711,,,,,,,,81.41,55.18
2020-07-19,295,56.72999954223633,57.95000076293945,48.61000061035156,3,2,1,4,0,1,1,2,2,3,2,13745,,,,,,,,70.13,45.0
2020-07-20,296,56.72999954223633,57.95000076293945,48.61000061035156,3,2,1,4,0,1,1,2,2,3,2,13771,,,,,,,,73.24,47.74
2020-07-21,296,56.72999954223633,57.95000076293945,48.61000061035156,3,2,1,4,0,1,1,2,2,3,2,13816,,,,,,,,70.47,45.91
2020-07-22,297,56.72999954223633,57.95000076293945,48.61000061035156,3,2,1,4,0,1,1,2,2,3,2,13879,,,,,,,,68.96,42.99
2020-07-23,297,56.72999954223633,57.95000076293945,48.61000061035156,3,2,1,4,0,1,1,2,2,3,2,13938,,,,,,,,68.74,40.73
2020-07-24,298,56.72999954223633,57.95000076293945,48.61000061035156,3,2,1,4,0,1,1,2,2,3,2,13979,,,,,,,,81.1,58.47
2020-07-25,298,56.72999954223633,57.95000076293945,48.61000061035156,3,2,1,4,0,1,1,2,2,3,2,14092,,,,,,,,81.04,58.57
2020-07-26,298,56.72999954223633,57.95000076293945,48.61000061035156,3,2,1,4,0,1,1,2,2,3,2,14150,,,,,,,,72.71,45.26
2020-07-27,299,56.72999954223633,57.95000076293945,48.61000061035156,3,2,1,4,0,1,1,2,2,3,2,14175,,,,,,,,66.19,42.28
2020-07-28,300,56.72999954223633,57.95000076293945,48.61000061035156,3,2,1,4,0,1,1,2,2,3,2,14203,,,,,,,,69.68,40.99
2020-07-29,300,56.72999954223633,57.95000076293945,48.61000061035156,3,2,1,4,0,1,1,2,2,3,2,14251,,,,,,,,70.4,44.61
2020-07-30,300,56.72999954223633,57.95000076293945,48.61000061035156,3,2,1,4,0,1,1,2,2,3,2,14269,,,,,,,,79.7,50.83
2020-07-31,301,56.72999954223633,57.95000076293945,48.61000061035156,3,2,1,4,0,1,1,2,2,3,2,14305,,,,,,,,92.25,59.43
2020-08-01,301,56.72999954223633,57.95000076293945,48.61000061035156,3,2,1,4,0,1,1,2,2,3,2,14336,,,,,,,,85.22,53.96
2020-08-02,301,56.72999954223633,57.95000076293945,48.61000061035156,3,2,1,4,0,1,1,2,2,3,2,14336,,,,,,,,83.26,52.17
2020-08-03,301,56.72999954223633,57.95000076293945,48.61000061035156,3,2,1,4,0,1,1,2,2,3,2,14389,,,,,,,,83.23,50.12
2020-08-04,301,56.72999954223633,57.95000076293945,48.61000061035156,3,2,1,4,0,1,1,2,2,3,2,14423,,,,,,,,77.33,48.04
2020-08-05,302,56.72999954223633,57.95000076293945,48.61000061035156,3,2,1,4,0,1,1,2,2,3,2,14456,,,,,,,,74.23,47.74
2020-08-06,302,56.72999954223633,57.95000076293945,48.61000061035156,3,2,1,4,0,1,1,2,2,3,2,14499,,,,,,,,78.0,50.24
2020-08-07,303,56.72999954223633,57.95000076293945,48.61000061035156,3,2,1,4,0,1,1,2,2,3,2,14519,,,,,,,,79.68,55.18
2020-08-08,304,56.72999954223633,57.95000076293945,48.61000061035156,3,2,1,4,0,1,1,2,2,3,2,14562,,,,,,,,72.58,46.74
2020-08-09,305,56.72999954223633,57.95000076293945,48.61000061035156,3,2,1,4,0,1,1,2,2,3,2,14598,,,,,,,,70.84,43.54
2020-08-10,305,56.72999954223633,57.95000076293945,48.61000061035156,3,2,1,4,0,1,1,2,2,3,2,14626,,,,,,,,71.65,44.69
2020-08-11,305,56.72999954223633,57.95000076293945,48.61000061035156,3,2,1,4,0,1,1,2,2,3,2,14660,,,,,,,,75.54,50.25
2020-08-12,305,56.72999954223633,57.95000076293945,48.61000061035156,3,2,1,4,0,1,1,2,2,3,2,14714,,,,,,,,79.12,53.36
2020-08-13,305,56.72999954223633,57.95000076293945,48.61000061035156,3,2,1,4,0,1,1,2,2,3,2,14770,,,,,,,,84.23,54.64
2020-08-14,305,56.72999954223633,57.95000076293945,48.61000061035156,3,2,1,4,0,1,1,2,2,3,2,14873,,,,,,,,95.21,59.26
2020-08-15,305,56.72999954223633,57.95000076293945,48.61000061035156,3,2,1,4,0,1,1,2,2,3,2,15039,,,,,,,,89.87,59.7
2020-08-16,305,60.58000183105469,62.5,54.16999816894531,3,2,2,4,0,1,1,2,2,3,2,15318,,,,,,,,88.55,53.22
2020-08-17,305,60.58000183105469,62.5,54.16999816894531,3,2,2,4,0,1,1,2,2,3,2,15515,,,,,,,,78.94,48.68
2020-08-18,306,60.58000183105469,62.5,54.16999816894531,3,2,2,4,0,1,1,2,2,3,2,15761,,,,,,,,74.34,45.57
2020-08-19,306,60.58000183105469,62.5,54.16999816894531,3,2,2,4,0,1,1,2,2,3,2,16058,,,,,,,,72.69,45.36
2020-08-20,307,60.58000183105469,62.5,54.16999816894531,3,2,2,4,0,1,1,2,2,3,2,16346,,,,,,,,71.44,43.25
2020-08-21,,,,,,,,,,,,,,,,16670,,,,,,,,72.04,45.72
2020-08-22,,,,,,,,,,,,,,,,17002,,,,,,,,68.34,41.57
2020-08-23,,,,,,,,,,,,,,,,17399,,,,,,,,69.71,45.28
2020-08-24,309,,,,,,,,,,,,,,,17665,,,,,,,,69.83,43.85
2020-08-25,310,,,,,,,,,,,,,,,17945,,,,,,,,68.07,40.56
2020-08-26,312,,,,,,,,,,,,,,,18265,,,,,,,,59.32,38.75
2020-08-27,313,,,,,,,,,,,,,,,18706,,,,,,,,63.72,37.64
2020-08-28,316,,,,,,,,,,,,,,,19077,,,,,,,,67.78,42.07
2020-08-29,321,,,,,,,,,,,,,,,19400,,,,,,,,,
2020-08-30,323,,,,,,,,,,,,,,,,,,,,,,,,
